horizontal velocity
x y uv
0.5 	 0 	 0
0.5	0.00625	-0.00179233
0.5	0.0125	-0.00294985
0.5	0.01875	-0.00362365
0.5	0.025	-0.00397924
0.5	0.03125	-0.00415186
0.5	0.0375	-0.00423147
0.5	0.04375	-0.00426907
0.5	0.05	-0.00429
0.5	0.05625	-0.00430553
0.5	0.0625	-0.00432023
0.5	0.06875	-0.00433577
0.5	0.075	-0.00435275
0.5	0.08125	-0.00437137
0.5	0.0875	-0.00439168
0.5	0.09375	-0.00441371
0.5	0.1	-0.00443747
0.5	0.10625	-0.00446297
0.5	0.1125	-0.00449023
0.5	0.11875	-0.00451923
0.5	0.125	-0.00455001
0.5	0.13125	-0.00458257
0.5	0.1375	-0.00461692
0.5	0.14375	-0.00465307
0.5	0.15	-0.00469103
0.5	0.15625	-0.00473082
0.5	0.1625	-0.00477244
0.5	0.16875	-0.00481592
0.5	0.175	-0.00486127
0.5	0.18125	-0.0049085
0.5	0.1875	-0.00495763
0.5	0.19375	-0.00500867
0.5	0.2	-0.00506164
0.5	0.20625	-0.00511656
0.5	0.2125	-0.00517345
0.5	0.21875	-0.00523231
0.5	0.225	-0.00529318
0.5	0.23125	-0.00535606
0.5	0.2375	-0.00542099
0.5	0.24375	-0.00548797
0.5	0.25	-0.00555703
0.5	0.25625	-0.00562819
0.5	0.2625	-0.00570148
0.5	0.26875	-0.0057769
0.5	0.275	-0.00585449
0.5	0.28125	-0.00593427
0.5	0.2875	-0.00601625
0.5	0.29375	-0.00610047
0.5	0.3	-0.00618694
0.5	0.30625	-0.00627569
0.5	0.3125	-0.00636675
0.5	0.31875	-0.00646012
0.5	0.325	-0.00655585
0.5	0.33125	-0.00665396
0.5	0.3375	-0.00675446
0.5	0.34375	-0.00685739
0.5	0.35	-0.00696277
0.5	0.35625	-0.00707061
0.5	0.3625	-0.00718096
0.5	0.36875	-0.00729383
0.5	0.375	-0.00740924
0.5	0.38125	-0.00752722
0.5	0.3875	-0.0076478
0.5	0.39375	-0.00777099
0.5	0.4	-0.00789683
0.5	0.40625	-0.00802532
0.5	0.4125	-0.00815651
0.5	0.41875	-0.0082904
0.5	0.425	-0.00842701
0.5	0.43125	-0.00856638
0.5	0.4375	-0.00870851
0.5	0.44375	-0.00885343
0.5	0.45	-0.00900115
0.5	0.45625	-0.00915168
0.5	0.4625	-0.00930506
0.5	0.46875	-0.00946127
0.5	0.475	-0.00962035
0.5	0.48125	-0.0097823
0.5	0.4875	-0.00994713
0.5	0.49375	-0.0101148
0.5	0.5	-0.0102854
0.5	0.50625	-0.0104589
0.5	0.5125	-0.0106353
0.5	0.51875	-0.0108146
0.5	0.525	-0.0109968
0.5	0.53125	-0.0111818
0.5	0.5375	-0.0113697
0.5	0.54375	-0.0115605
0.5	0.55	-0.0117541
0.5	0.55625	-0.0119505
0.5	0.5625	-0.0121497
0.5	0.56875	-0.0123516
0.5	0.575	-0.0125563
0.5	0.58125	-0.0127637
0.5	0.5875	-0.0129737
0.5	0.59375	-0.0131864
0.5	0.6	-0.0134016
0.5	0.60625	-0.0136192
0.5	0.6125	-0.0138393
0.5	0.61875	-0.0140618
0.5	0.625	-0.0142866
0.5	0.63125	-0.0145135
0.5	0.6375	-0.0147426
0.5	0.64375	-0.0149737
0.5	0.65	-0.0152068
0.5	0.65625	-0.0154416
0.5	0.6625	-0.0156782
0.5	0.66875	-0.0159163
0.5	0.675	-0.0161559
0.5	0.68125	-0.0163968
0.5	0.6875	-0.0166388
0.5	0.69375	-0.0168819
0.5	0.7	-0.0171258
0.5	0.70625	-0.0173704
0.5	0.7125	-0.0176154
0.5	0.71875	-0.0178608
0.5	0.725	-0.0181063
0.5	0.73125	-0.0183517
0.5	0.7375	-0.0185968
0.5	0.74375	-0.0188414
0.5	0.75	-0.0190852
0.5	0.75625	-0.019328
0.5	0.7625	-0.0195695
0.5	0.76875	-0.0198096
0.5	0.775	-0.0200479
0.5	0.78125	-0.0202841
0.5	0.7875	-0.0205181
0.5	0.79375	-0.0207495
0.5	0.8	-0.020978
0.5	0.80625	-0.0212034
0.5	0.8125	-0.0214253
0.5	0.81875	-0.0216434
0.5	0.825	-0.0218575
0.5	0.83125	-0.0220672
0.5	0.8375	-0.0222723
0.5	0.84375	-0.0224724
0.5	0.85	-0.0226671
0.5	0.85625	-0.0228563
0.5	0.8625	-0.0230396
0.5	0.86875	-0.0232167
0.5	0.875	-0.0233873
0.5	0.88125	-0.0235511
0.5	0.8875	-0.0237079
0.5	0.89375	-0.0238573
0.5	0.9	-0.023999
0.5	0.90625	-0.0241329
0.5	0.9125	-0.0242586
0.5	0.91875	-0.0243755
0.5	0.925	-0.0244817
0.5	0.93125	-0.0245673
0.5	0.9375	-0.0245884
0.5	0.94375	-0.0243684
0.5	0.95	-0.0232862
0.5	0.95625	-0.0194605
0.5	0.9625	-0.00805133
0.5	0.96875	0.0212757
0.5	0.975	0.0861495
0.5	0.98125	0.20888
0.5	0.9875	0.406527
0.5	0.99375	0.678019
0.5 	 1 	 1
