0	0	0
0	0.0217391	0
0	0.0434783	0
0	0.0652174	0
0	0.0869565	0
0	0.108696	0
0	0.130435	0
0	0.152174	0
0	0.173913	0
0	0.195652	0
0	0.217391	0
0	0.23913	0
0	0.26087	0
0	0.282609	0
0	0.304348	0
0	0.326087	0
0	0.347826	0
0	0.369565	0
0	0.391304	0
0	0.413043	0
0	0.434783	0
0	0.456522	0
0	0.478261	0
0	0.5	0
0	0.521739	0
0	0.543478	0
0	0.565217	0
0	0.586957	0
0	0.608696	0
0	0.630435	0
0	0.652174	0
0	0.673913	0
0	0.695652	0
0	0.717391	0
0	0.73913	0
0	0.76087	0
0	0.782609	0
0	0.804348	0
0	0.826087	0
0	0.847826	0
0	0.869565	0
0	0.891304	0
0	0.913043	0
0	0.934783	0
0	0.956522	0
0	0.978261	0
0	1	0

0.0217391	0	0
0.0217391	0.0217391	-2.13129e-06
0.0217391	0.0434783	-5.16369e-06
0.0217391	0.0652174	-8.32147e-06
0.0217391	0.0869565	-1.15249e-05
0.0217391	0.108696	-1.47815e-05
0.0217391	0.130435	-1.81062e-05
0.0217391	0.152174	-2.15141e-05
0.0217391	0.173913	-2.50205e-05
0.0217391	0.195652	-2.8641e-05
0.0217391	0.217391	-3.23911e-05
0.0217391	0.23913	-3.62869e-05
0.0217391	0.26087	-4.03441e-05
0.0217391	0.282609	-4.45786e-05
0.0217391	0.304348	-4.90076e-05
0.0217391	0.326087	-5.36678e-05
0.0217391	0.347826	-5.87192e-05
0.0217391	0.369565	-6.42027e-05
0.0217391	0.391304	-6.99785e-05
0.0217391	0.413043	-7.60424e-05
0.0217391	0.434783	-8.24146e-05
0.0217391	0.456522	-8.9117e-05
0.0217391	0.478261	-9.61716e-05
0.0217391	0.5	-0.0001036
0.0217391	0.521739	-0.000111425
0.0217391	0.543478	-0.000119667
0.0217391	0.565217	-0.00012835
0.0217391	0.586957	-0.000137494
0.0217391	0.608696	-0.00014712
0.0217391	0.630435	-0.00015725
0.0217391	0.652174	-0.00016792
0.0217391	0.673913	-0.000179319
0.0217391	0.695652	-0.000191456
0.0217391	0.717391	-0.0002042
0.0217391	0.73913	-0.000217539
0.0217391	0.76087	-0.000231493
0.0217391	0.782609	-0.000246099
0.0217391	0.804348	-0.000261423
0.0217391	0.826087	-0.000277597
0.0217391	0.847826	-0.000294898
0.0217391	0.869565	-0.000313916
0.0217391	0.891304	-0.000335923
0.0217391	0.913043	-0.000363761
0.0217391	0.934783	-0.000404065
0.0217391	0.956522	-0.000472476
0.0217391	0.978261	-0.000584534
0.0217391	1	0

0.0434783	0	0
0.0434783	0.0217391	-5.13601e-06
0.0434783	0.0434783	-1.22562e-05
0.0434783	0.0652174	-1.96578e-05
0.0434783	0.0869565	-2.71692e-05
0.0434783	0.108696	-3.48083e-05
0.0434783	0.130435	-4.26095e-05
0.0434783	0.152174	-5.06086e-05
0.0434783	0.173913	-5.88422e-05
0.0434783	0.195652	-6.7347e-05
0.0434783	0.217391	-7.61605e-05
0.0434783	0.23913	-8.53209e-05
0.0434783	0.26087	-9.4867e-05
0.0434783	0.282609	-0.000104838
0.0434783	0.304348	-0.000115278
0.0434783	0.326087	-0.000126278
0.0434783	0.347826	-0.000138188
0.0434783	0.369565	-0.000151103
0.0434783	0.391304	-0.000164728
0.0434783	0.413043	-0.000179054
0.0434783	0.434783	-0.000194128
0.0434783	0.456522	-0.000210003
0.0434783	0.478261	-0.000226736
0.0434783	0.5	-0.000244384
0.0434783	0.521739	-0.000263004
0.0434783	0.543478	-0.000282657
0.0434783	0.565217	-0.000303405
0.0434783	0.586957	-0.000325311
0.0434783	0.608696	-0.000348438
0.0434783	0.630435	-0.000372856
0.0434783	0.652174	-0.000398672
0.0434783	0.673913	-0.000426321
0.0434783	0.695652	-0.000455866
0.0434783	0.717391	-0.00048706
0.0434783	0.73913	-0.00051991
0.0434783	0.76087	-0.000554502
0.0434783	0.782609	-0.000590954
0.0434783	0.804348	-0.000629442
0.0434783	0.826087	-0.000670252
0.0434783	0.847826	-0.000713895
0.0434783	0.869565	-0.000761332
0.0434783	0.891304	-0.000814427
0.0434783	0.913043	-0.000876832
0.0434783	0.934783	-0.000955625
0.0434783	0.956522	-0.00106244
0.0434783	0.978261	-0.00117342
0.0434783	1	0

0.0652174	0	0
0.0652174	0.0217391	-8.21571e-06
0.0652174	0.0434783	-1.95109e-05
0.0652174	0.0652174	-3.12423e-05
0.0652174	0.0869565	-4.31483e-05
0.0652174	0.108696	-5.52585e-05
0.0652174	0.130435	-6.76273e-05
0.0652174	0.152174	-8.0312e-05
0.0652174	0.173913	-9.33704e-05
0.0652174	0.195652	-0.000106861
0.0652174	0.217391	-0.000120845
0.0652174	0.23913	-0.000135383
0.0652174	0.26087	-0.000150536
0.0652174	0.282609	-0.000166371
0.0652174	0.304348	-0.000182958
0.0652174	0.326087	-0.000200444
0.0652174	0.347826	-0.000219366
0.0652174	0.369565	-0.000239872
0.0652174	0.391304	-0.00026152
0.0652174	0.413043	-0.000284296
0.0652174	0.434783	-0.000308274
0.0652174	0.456522	-0.000333539
0.0652174	0.478261	-0.000360183
0.0652174	0.5	-0.000388299
0.0652174	0.521739	-0.000417984
0.0652174	0.543478	-0.000449337
0.0652174	0.565217	-0.000482462
0.0652174	0.586957	-0.000517468
0.0652174	0.608696	-0.000554463
0.0652174	0.630435	-0.000593569
0.0652174	0.652174	-0.000634969
0.0652174	0.673913	-0.000679343
0.0652174	0.695652	-0.000726809
0.0652174	0.717391	-0.000777016
0.0652174	0.73913	-0.000829989
0.0652174	0.76087	-0.000885869
0.0652174	0.782609	-0.000944841
0.0652174	0.804348	-0.00100714
0.0652174	0.826087	-0.00107311
0.0652174	0.847826	-0.00114329
0.0652174	0.869565	-0.00121857
0.0652174	0.891304	-0.00130053
0.0652174	0.913043	-0.00139193
0.0652174	0.934783	-0.00149739
0.0652174	0.956522	-0.00162133
0.0652174	0.978261	-0.00169811
0.0652174	1	0

0.0869565	0	0
0.0869565	0.0217391	-1.12641e-05
0.0869565	0.0434783	-2.66913e-05
0.0869565	0.0652174	-4.27071e-05
0.0869565	0.0869565	-5.89617e-05
0.0869565	0.108696	-7.54962e-05
0.0869565	0.130435	-9.23856e-05
0.0869565	0.152174	-0.000109708
0.0869565	0.173913	-0.000127543
0.0869565	0.195652	-0.000145971
0.0869565	0.217391	-0.000165075
0.0869565	0.23913	-0.000184939
0.0869565	0.26087	-0.000205649
0.0869565	0.282609	-0.000227294
0.0869565	0.304348	-0.000249977
0.0869565	0.326087	-0.000273894
0.0869565	0.347826	-0.00029977
0.0869565	0.369565	-0.000327805
0.0869565	0.391304	-0.000357411
0.0869565	0.413043	-0.00038857
0.0869565	0.434783	-0.000421383
0.0869565	0.456522	-0.000455969
0.0869565	0.478261	-0.000492453
0.0869565	0.5	-0.000530964
0.0869565	0.521739	-0.000571637
0.0869565	0.543478	-0.000614613
0.0869565	0.565217	-0.000660037
0.0869565	0.586957	-0.000708061
0.0869565	0.608696	-0.000758844
0.0869565	0.630435	-0.000812555
0.0869565	0.652174	-0.000869457
0.0869565	0.673913	-0.00093047
0.0869565	0.695652	-0.000995766
0.0869565	0.717391	-0.00106489
0.0869565	0.73913	-0.00113787
0.0869565	0.76087	-0.00121491
0.0869565	0.782609	-0.00129623
0.0869565	0.804348	-0.00138207
0.0869565	0.826087	-0.00147274
0.0869565	0.847826	-0.00156863
0.0869565	0.869565	-0.00167027
0.0869565	0.891304	-0.00177843
0.0869565	0.913043	-0.00189418
0.0869565	0.934783	-0.00201874
0.0869565	0.956522	-0.00214833
0.0869565	0.978261	-0.0021709
0.0869565	1	0

0.108696	0	0
0.108696	0.0217391	-1.42603e-05
0.108696	0.0434783	-3.37473e-05
0.108696	0.0652174	-5.39725e-05
0.108696	0.0869565	-7.44998e-05
0.108696	0.108696	-9.5382e-05
0.108696	0.130435	-0.000116714
0.108696	0.152174	-0.000138596
0.108696	0.173913	-0.000161127
0.108696	0.195652	-0.00018441
0.108696	0.217391	-0.000208551
0.108696	0.23913	-0.000233656
0.108696	0.26087	-0.000259835
0.108696	0.282609	-0.000287202
0.108696	0.304348	-0.000315886
0.108696	0.326087	-0.000346139
0.108696	0.347826	-0.000378868
0.108696	0.369565	-0.000414325
0.108696	0.391304	-0.000451778
0.108696	0.413043	-0.000491205
0.108696	0.434783	-0.000532735
0.108696	0.456522	-0.000576517
0.108696	0.478261	-0.000622712
0.108696	0.5	-0.000671485
0.108696	0.521739	-0.000723009
0.108696	0.543478	-0.000777463
0.108696	0.565217	-0.000835035
0.108696	0.586957	-0.000895923
0.108696	0.608696	-0.00096033
0.108696	0.630435	-0.00102848
0.108696	0.652174	-0.00110071
0.108696	0.673913	-0.00117818
0.108696	0.695652	-0.00126112
0.108696	0.717391	-0.00134896
0.108696	0.73913	-0.00144175
0.108696	0.76087	-0.00153972
0.108696	0.782609	-0.00164313
0.108696	0.804348	-0.00175221
0.108696	0.826087	-0.0018672
0.108696	0.847826	-0.00198827
0.108696	0.869565	-0.00211551
0.108696	0.891304	-0.00224878
0.108696	0.913043	-0.00238748
0.108696	0.934783	-0.00252963
0.108696	0.956522	-0.0026636
0.108696	0.978261	-0.00262724
0.108696	1	0

0.130435	0	0
0.130435	0.0217391	-1.71899e-05
0.130435	0.0434783	-4.06443e-05
0.130435	0.0652174	-6.49829e-05
0.130435	0.0869565	-8.9686e-05
0.130435	0.108696	-0.000114818
0.130435	0.130435	-0.000140494
0.130435	0.152174	-0.000166834
0.130435	0.173913	-0.000193959
0.130435	0.195652	-0.000221993
0.130435	0.217391	-0.000251063
0.130435	0.23913	-0.000281299
0.130435	0.26087	-0.000312834
0.130435	0.282609	-0.000345806
0.130435	0.304348	-0.000380373
0.130435	0.326087	-0.000416837
0.130435	0.347826	-0.000456291
0.130435	0.369565	-0.000499035
0.130435	0.391304	-0.000544193
0.130435	0.413043	-0.000591741
0.130435	0.434783	-0.000641834
0.130435	0.456522	-0.000694654
0.130435	0.478261	-0.000750394
0.130435	0.5	-0.000809256
0.130435	0.521739	-0.00087145
0.130435	0.543478	-0.000937195
0.130435	0.565217	-0.00100672
0.130435	0.586957	-0.00108027
0.130435	0.608696	-0.00115808
0.130435	0.630435	-0.00124045
0.130435	0.652174	-0.00132778
0.130435	0.673913	-0.00142147
0.130435	0.695652	-0.00152181
0.130435	0.717391	-0.00162811
0.130435	0.73913	-0.00174045
0.130435	0.76087	-0.0018591
0.130435	0.782609	-0.00198435
0.130435	0.804348	-0.00211645
0.130435	0.826087	-0.00225557
0.130435	0.847826	-0.00240175
0.130435	0.869565	-0.00255471
0.130435	0.891304	-0.0027137
0.130435	0.913043	-0.00287696
0.130435	0.934783	-0.00304047
0.130435	0.956522	-0.00318622
0.130435	0.978261	-0.00309942
0.130435	1	0

0.152174	0	0
0.152174	0.0217391	-2.00391e-05
0.152174	0.0434783	-4.73489e-05
0.152174	0.0652174	-7.5685e-05
0.152174	0.0869565	-0.000104447
0.152174	0.108696	-0.00013371
0.152174	0.130435	-0.00016361
0.152174	0.152174	-0.000194286
0.152174	0.173913	-0.000225881
0.152174	0.195652	-0.000258539
0.152174	0.217391	-0.00029241
0.152174	0.23913	-0.000327644
0.152174	0.26087	-0.000364398
0.152174	0.282609	-0.000402834
0.152174	0.304348	-0.000443137
0.152174	0.326087	-0.000485662
0.152174	0.347826	-0.000531682
0.152174	0.369565	-0.00058155
0.152174	0.391304	-0.000634243
0.152174	0.413043	-0.000689734
0.152174	0.434783	-0.000748205
0.152174	0.456522	-0.00080987
0.152174	0.478261	-0.000874955
0.152174	0.5	-0.000943696
0.152174	0.521739	-0.00101634
0.152174	0.543478	-0.00109315
0.152174	0.565217	-0.00117438
0.152174	0.586957	-0.00126034
0.152174	0.608696	-0.0013513
0.152174	0.630435	-0.00144761
0.152174	0.652174	-0.00154975
0.152174	0.673913	-0.00165937
0.152174	0.695652	-0.0017768
0.152174	0.717391	-0.00190126
0.152174	0.73913	-0.00203284
0.152174	0.76087	-0.00217188
0.152174	0.782609	-0.00231873
0.152174	0.804348	-0.00247367
0.152174	0.826087	-0.0026369
0.152174	0.847826	-0.00280843
0.152174	0.869565	-0.0029879
0.152174	0.891304	-0.00317434
0.152174	0.913043	-0.00336568
0.152174	0.934783	-0.00355727
0.152174	0.956522	-0.00372659
0.152174	0.978261	-0.00360278
0.152174	1	0

0.173913	0	0
0.173913	0.0217391	-2.27939e-05
0.173913	0.0434783	-5.38283e-05
0.173913	0.0652174	-8.60264e-05
0.173913	0.0869565	-0.00011871
0.173913	0.108696	-0.000151967
0.173913	0.130435	-0.00018595
0.173913	0.152174	-0.00022082
0.173913	0.173913	-0.00025674
0.173913	0.195652	-0.000293874
0.173913	0.217391	-0.000332392
0.173913	0.23913	-0.000372468
0.173913	0.26087	-0.000414281
0.173913	0.282609	-0.000458016
0.173913	0.304348	-0.000503884
0.173913	0.326087	-0.000552293
0.173913	0.347826	-0.000604696
0.173913	0.369565	-0.000661496
0.173913	0.391304	-0.000721524
0.173913	0.413043	-0.00078475
0.173913	0.434783	-0.000851383
0.173913	0.456522	-0.000921666
0.173913	0.478261	-0.00099586
0.173913	0.5	-0.00107423
0.173913	0.521739	-0.00115707
0.173913	0.543478	-0.00124467
0.173913	0.565217	-0.00133733
0.173913	0.586957	-0.00143539
0.173913	0.608696	-0.0015392
0.173913	0.630435	-0.00164912
0.173913	0.652174	-0.00176574
0.173913	0.673913	-0.00189093
0.173913	0.695652	-0.00202508
0.173913	0.717391	-0.00216732
0.173913	0.73913	-0.00231778
0.173913	0.76087	-0.00247686
0.173913	0.782609	-0.00264501
0.173913	0.804348	-0.0028226
0.173913	0.826087	-0.00300994
0.173913	0.847826	-0.00320717
0.173913	0.869565	-0.0034141
0.173913	0.891304	-0.00363005
0.173913	0.913043	-0.00385338
0.173913	0.934783	-0.00408007
0.173913	0.956522	-0.0042843
0.173913	0.978261	-0.00413413
0.173913	1	0

0.195652	0	0
0.195652	0.0217391	-2.54408e-05
0.195652	0.0434783	-6.00504e-05
0.195652	0.0652174	-9.59555e-05
0.195652	0.0869565	-0.000132405
0.195652	0.108696	-0.000169497
0.195652	0.130435	-0.000207404
0.195652	0.152174	-0.000246305
0.195652	0.173913	-0.000286383
0.195652	0.195652	-0.000327824
0.195652	0.217391	-0.000370817
0.195652	0.23913	-0.000415557
0.195652	0.26087	-0.000462245
0.195652	0.282609	-0.000511089
0.195652	0.304348	-0.000562326
0.195652	0.326087	-0.000616416
0.195652	0.347826	-0.000674993
0.195652	0.369565	-0.000738505
0.195652	0.391304	-0.00080564
0.195652	0.413043	-0.000876363
0.195652	0.434783	-0.000950909
0.195652	0.456522	-0.00102955
0.195652	0.478261	-0.00111258
0.195652	0.5	-0.00120031
0.195652	0.521739	-0.00129304
0.195652	0.543478	-0.00139112
0.195652	0.565217	-0.00149488
0.195652	0.586957	-0.00160471
0.195652	0.608696	-0.00172099
0.195652	0.630435	-0.00184415
0.195652	0.652174	-0.00197484
0.195652	0.673913	-0.00211519
0.195652	0.695652	-0.00226564
0.195652	0.717391	-0.00242521
0.195652	0.73913	-0.0025941
0.195652	0.76087	-0.00277279
0.195652	0.782609	-0.00296183
0.195652	0.804348	-0.00316177
0.195652	0.826087	-0.00337309
0.195652	0.847826	-0.0035962
0.195652	0.869565	-0.0038313
0.195652	0.891304	-0.00407832
0.195652	0.913043	-0.00433664
0.195652	0.934783	-0.00460358
0.195652	0.956522	-0.0048502
0.195652	0.978261	-0.00467766
0.195652	1	0

0.217391	0	0
0.217391	0.0217391	-2.79663e-05
0.217391	0.0434783	-6.59834e-05
0.217391	0.0652174	-0.000105422
0.217391	0.0869565	-0.000145461
0.217391	0.108696	-0.000186212
0.217391	0.130435	-0.000227863
0.217391	0.152174	-0.000270614
0.217391	0.173913	-0.000314665
0.217391	0.195652	-0.000360221
0.217391	0.217391	-0.000407494
0.217391	0.23913	-0.000456698
0.217391	0.26087	-0.000508055
0.217391	0.282609	-0.000561795
0.217391	0.304348	-0.000618181
0.217391	0.326087	-0.000677724
0.217391	0.347826	-0.000742239
0.217391	0.369565	-0.000812218
0.217391	0.391304	-0.000886203
0.217391	0.413043	-0.000964157
0.217391	0.434783	-0.00104634
0.217391	0.456522	-0.00113305
0.217391	0.478261	-0.00122462
0.217391	0.5	-0.00132137
0.217391	0.521739	-0.00142367
0.217391	0.543478	-0.00153187
0.217391	0.565217	-0.00164637
0.217391	0.586957	-0.00176758
0.217391	0.608696	-0.00189593
0.217391	0.630435	-0.00203189
0.217391	0.652174	-0.0021762
0.217391	0.673913	-0.00233123
0.217391	0.695652	-0.00249747
0.217391	0.717391	-0.00267385
0.217391	0.73913	-0.00286062
0.217391	0.76087	-0.00305836
0.217391	0.782609	-0.00326777
0.217391	0.804348	-0.00348956
0.217391	0.826087	-0.00372446
0.217391	0.847826	-0.00397323
0.217391	0.869565	-0.00423659
0.217391	0.891304	-0.00451525
0.217391	0.913043	-0.0048098
0.217391	0.934783	-0.00511912
0.217391	0.956522	-0.00541038
0.217391	0.978261	-0.00521288
0.217391	1	0

0.23913	0	0
0.23913	0.0217391	-3.03571e-05
0.23913	0.0434783	-7.15962e-05
0.23913	0.0652174	-0.000114376
0.23913	0.0869565	-0.000157812
0.23913	0.108696	-0.000202026
0.23913	0.130435	-0.000247224
0.23913	0.152174	-0.000293622
0.23913	0.173913	-0.00034144
0.23913	0.195652	-0.000390903
0.23913	0.217391	-0.00044224
0.23913	0.23913	-0.000495686
0.23913	0.26087	-0.000551483
0.23913	0.282609	-0.000609884
0.23913	0.304348	-0.000671177
0.23913	0.326087	-0.000735922
0.23913	0.347826	-0.000806112
0.23913	0.369565	-0.000882287
0.23913	0.391304	-0.000962838
0.23913	0.413043	-0.00104773
0.23913	0.434783	-0.00113724
0.23913	0.456522	-0.0012317
0.23913	0.478261	-0.00133146
0.23913	0.5	-0.0014369
0.23913	0.521739	-0.00154838
0.23913	0.543478	-0.00166633
0.23913	0.565217	-0.00179116
0.23913	0.586957	-0.00192331
0.23913	0.608696	-0.00206327
0.23913	0.630435	-0.00221155
0.23913	0.652174	-0.00236897
0.23913	0.673913	-0.00253814
0.23913	0.695652	-0.00271959
0.23913	0.717391	-0.00291217
0.23913	0.73913	-0.00311616
0.23913	0.76087	-0.00333227
0.23913	0.782609	-0.00356133
0.23913	0.804348	-0.00380423
0.23913	0.826087	-0.00406197
0.23913	0.847826	-0.00433566
0.23913	0.869565	-0.00462657
0.23913	0.891304	-0.00493619
0.23913	0.913043	-0.00526626
0.23913	0.934783	-0.00561691
0.23913	0.956522	-0.00595025
0.23913	0.978261	-0.0057209
0.23913	1	0

0.26087	0	0
0.26087	0.0217391	-3.25998e-05
0.26087	0.0434783	-7.68583e-05
0.26087	0.0652174	-0.000122771
0.26087	0.0869565	-0.000169393
0.26087	0.108696	-0.000216856
0.26087	0.130435	-0.000265384
0.26087	0.152174	-0.00031521
0.26087	0.173913	-0.000366571
0.26087	0.195652	-0.000419711
0.26087	0.217391	-0.000474876
0.26087	0.23913	-0.000532323
0.26087	0.26087	-0.000592312
0.26087	0.282609	-0.000655116
0.26087	0.304348	-0.000721049
0.26087	0.326087	-0.00079072
0.26087	0.347826	-0.0008663
0.26087	0.369565	-0.000948372
0.26087	0.391304	-0.00103518
0.26087	0.413043	-0.00112668
0.26087	0.434783	-0.00122318
0.26087	0.456522	-0.00132504
0.26087	0.478261	-0.00143264
0.26087	0.5	-0.00154637
0.26087	0.521739	-0.00166664
0.26087	0.543478	-0.00179391
0.26087	0.565217	-0.00192862
0.26087	0.586957	-0.00207125
0.26087	0.608696	-0.00222231
0.26087	0.630435	-0.00238238
0.26087	0.652174	-0.00255234
0.26087	0.673913	-0.00273505
0.26087	0.695652	-0.00293106
0.26087	0.717391	-0.00313913
0.26087	0.73913	-0.00335959
0.26087	0.76087	-0.00359324
0.26087	0.782609	-0.00384104
0.26087	0.804348	-0.00410406
0.26087	0.826087	-0.00438352
0.26087	0.847826	-0.00468088
0.26087	0.869565	-0.00499785
0.26087	0.891304	-0.00533657
0.26087	0.913043	-0.00569969
0.26087	0.934783	-0.00608803
0.26087	0.956522	-0.00645736
0.26087	0.978261	-0.00618787
0.26087	1	0

0.282609	0	0
0.282609	0.0217391	-3.46812e-05
0.282609	0.0434783	-8.17398e-05
0.282609	0.0652174	-0.000130559
0.282609	0.0869565	-0.000180139
0.282609	0.108696	-0.000230623
0.282609	0.130435	-0.000282248
0.282609	0.152174	-0.000335265
0.282609	0.173913	-0.000389927
0.282609	0.195652	-0.000446495
0.282609	0.217391	-0.000505235
0.282609	0.23913	-0.000566421
0.282609	0.26087	-0.000630332
0.282609	0.282609	-0.000697262
0.282609	0.304348	-0.000767547
0.282609	0.326087	-0.000841845
0.282609	0.347826	-0.000922507
0.282609	0.369565	-0.00101015
0.282609	0.391304	-0.00110288
0.282609	0.413043	-0.00120065
0.282609	0.434783	-0.00130378
0.282609	0.456522	-0.00141265
0.282609	0.478261	-0.00152768
0.282609	0.5	-0.00164929
0.282609	0.521739	-0.00177793
0.282609	0.543478	-0.00191405
0.282609	0.565217	-0.00205816
0.282609	0.586957	-0.00221075
0.282609	0.608696	-0.00237239
0.282609	0.630435	-0.00254368
0.282609	0.652174	-0.00272556
0.282609	0.673913	-0.00292114
0.282609	0.695652	-0.003131
0.282609	0.717391	-0.00335377
0.282609	0.73913	-0.00358984
0.282609	0.76087	-0.00384008
0.282609	0.782609	-0.00410554
0.282609	0.804348	-0.00438744
0.282609	0.826087	-0.0046872
0.282609	0.847826	-0.00500649
0.282609	0.869565	-0.00534737
0.282609	0.891304	-0.00571243
0.282609	0.913043	-0.00610483
0.282609	0.934783	-0.00652553
0.282609	0.956522	-0.00692295
0.282609	0.978261	-0.00660586
0.282609	1	0

0.304348	0	0
0.304348	0.0217391	-3.65895e-05
0.304348	0.0434783	-8.6217e-05
0.304348	0.0652174	-0.000137706
0.304348	0.0869565	-0.000190006
0.304348	0.108696	-0.000243267
0.304348	0.130435	-0.000297744
0.304348	0.152174	-0.000353701
0.304348	0.173913	-0.000411408
0.304348	0.195652	-0.000471143
0.304348	0.217391	-0.000533189
0.304348	0.23913	-0.000597836
0.304348	0.26087	-0.000665384
0.304348	0.282609	-0.000736144
0.304348	0.304348	-0.000810477
0.304348	0.326087	-0.000889088
0.304348	0.347826	-0.000974503
0.304348	0.369565	-0.00106738
0.304348	0.391304	-0.00116567
0.304348	0.413043	-0.00126933
0.304348	0.434783	-0.00137869
0.304348	0.456522	-0.00149418
0.304348	0.478261	-0.00161622
0.304348	0.5	-0.00174527
0.304348	0.521739	-0.0018818
0.304348	0.543478	-0.0020263
0.304348	0.565217	-0.00217928
0.304348	0.586957	-0.00234131
0.304348	0.608696	-0.00251294
0.304348	0.630435	-0.00269482
0.304348	0.652174	-0.00288798
0.304348	0.673913	-0.00309572
0.304348	0.695652	-0.00331865
0.304348	0.717391	-0.00355528
0.304348	0.73913	-0.00380601
0.304348	0.76087	-0.00407176
0.304348	0.782609	-0.00435367
0.304348	0.804348	-0.00465304
0.304348	0.826087	-0.00497139
0.304348	0.847826	-0.00531056
0.304348	0.869565	-0.00567277
0.304348	0.891304	-0.0060608
0.304348	0.913043	-0.00647802
0.304348	0.934783	-0.00692495
0.304348	0.956522	-0.00734212
0.304348	0.978261	-0.0069722
0.304348	1	0

0.326087	0	0
0.326087	0.0217391	-3.83345e-05
0.326087	0.0434783	-9.03173e-05
0.326087	0.0652174	-0.000144255
0.326087	0.0869565	-0.000199051
0.326087	0.108696	-0.000254863
0.326087	0.130435	-0.00031196
0.326087	0.152174	-0.000370621
0.326087	0.173913	-0.000431132
0.326087	0.195652	-0.000493785
0.326087	0.217391	-0.00055888
0.326087	0.23913	-0.000626725
0.326087	0.26087	-0.000697638
0.326087	0.282609	-0.000771947
0.326087	0.304348	-0.000850035
0.326087	0.326087	-0.000932655
0.326087	0.347826	-0.00102252
0.326087	0.369565	-0.00112027
0.326087	0.391304	-0.00122375
0.326087	0.413043	-0.0013329
0.326087	0.434783	-0.0014481
0.326087	0.456522	-0.00156977
0.326087	0.478261	-0.00169838
0.326087	0.5	-0.00183441
0.326087	0.521739	-0.00197834
0.326087	0.543478	-0.0021307
0.326087	0.565217	-0.00229204
0.326087	0.586957	-0.00246293
0.326087	0.608696	-0.00264396
0.326087	0.630435	-0.00283581
0.326087	0.652174	-0.00303955
0.326087	0.673913	-0.00325865
0.326087	0.695652	-0.00349381
0.326087	0.717391	-0.00374337
0.326087	0.73913	-0.00400771
0.326087	0.76087	-0.00428782
0.326087	0.782609	-0.00458483
0.326087	0.804348	-0.0049001
0.326087	0.826087	-0.00523519
0.326087	0.847826	-0.00559195
0.326087	0.869565	-0.00597265
0.326087	0.891304	-0.00638005
0.326087	0.913043	-0.00681739
0.326087	0.934783	-0.00728434
0.326087	0.956522	-0.00771347
0.326087	0.978261	-0.00728809
0.326087	1	0

0.347826	0	0
0.347826	0.0217391	-4.00448e-05
0.347826	0.0434783	-9.4316e-05
0.347826	0.0652174	-0.000150626
0.347826	0.0869565	-0.000207835
0.347826	0.108696	-0.000266111
0.347826	0.130435	-0.000325735
0.347826	0.152174	-0.000387002
0.347826	0.173913	-0.000450213
0.347826	0.195652	-0.000515674
0.347826	0.217391	-0.000583701
0.347826	0.23913	-0.000654618
0.347826	0.26087	-0.00072876
0.347826	0.282609	-0.000806473
0.347826	0.304348	-0.00088816
0.347826	0.326087	-0.000974633
0.347826	0.347826	-0.00106899
0.347826	0.369565	-0.00117129
0.347826	0.391304	-0.00127957
0.347826	0.413043	-0.00139381
0.347826	0.434783	-0.00151442
0.347826	0.456522	-0.00164184
0.347826	0.478261	-0.00177656
0.347826	0.5	-0.00191908
0.347826	0.521739	-0.00206992
0.347826	0.543478	-0.00222963
0.347826	0.565217	-0.00239877
0.347826	0.586957	-0.00257793
0.347826	0.608696	-0.00276775
0.347826	0.630435	-0.00296891
0.347826	0.652174	-0.0031825
0.347826	0.673913	-0.00341179
0.347826	0.695652	-0.00365812
0.347826	0.717391	-0.00391948
0.347826	0.73913	-0.00419622
0.347826	0.76087	-0.00448931
0.347826	0.782609	-0.00479989
0.347826	0.804348	-0.00512929
0.347826	0.826087	-0.00547904
0.347826	0.847826	-0.00585094
0.347826	0.869565	-0.00624714
0.347826	0.891304	-0.00667022
0.347826	0.913043	-0.00712306
0.347826	0.934783	-0.0076042
0.347826	0.956522	-0.00803849
0.347826	0.978261	-0.00755723
0.347826	1	0

0.369565	0	0
0.369565	0.0217391	-4.17258e-05
0.369565	0.0434783	-9.822e-05
0.369565	0.0652174	-0.000156825
0.369565	0.0869565	-0.000216365
0.369565	0.108696	-0.000277017
0.369565	0.130435	-0.000339076
0.369565	0.152174	-0.000402851
0.369565	0.173913	-0.000468656
0.369565	0.195652	-0.000536812
0.369565	0.217391	-0.00060765
0.369565	0.23913	-0.000681508
0.369565	0.26087	-0.000758737
0.369565	0.282609	-0.000839701
0.369565	0.304348	-0.00092482
0.369565	0.326087	-0.00101493
0.369565	0.347826	-0.00111318
0.369565	0.369565	-0.0012196
0.369565	0.391304	-0.00133227
0.369565	0.413043	-0.00145117
0.369565	0.434783	-0.00157673
0.369565	0.456522	-0.00170943
0.369565	0.478261	-0.00184977
0.369565	0.5	-0.00199828
0.369565	0.521739	-0.00215549
0.369565	0.543478	-0.00232198
0.369565	0.565217	-0.00249833
0.369565	0.586957	-0.00268516
0.369565	0.608696	-0.00288311
0.369565	0.630435	-0.00309289
0.369565	0.652174	-0.00331561
0.369565	0.673913	-0.00355453
0.369565	0.695652	-0.00381102
0.369565	0.717391	-0.00408303
0.369565	0.73913	-0.00437092
0.369565	0.76087	-0.00467561
0.369565	0.782609	-0.00499822
0.369565	0.804348	-0.00534001
0.369565	0.826087	-0.00570242
0.369565	0.847826	-0.0060871
0.369565	0.869565	-0.00649599
0.369565	0.891304	-0.00693137
0.369565	0.913043	-0.00739563
0.369565	0.934783	-0.00788607
0.369565	0.956522	-0.00832029
0.369565	0.978261	-0.00778462
0.369565	1	0

0.391304	0	0
0.391304	0.0217391	-4.32119e-05
0.391304	0.0434783	-0.000101672
0.391304	0.0652174	-0.000162308
0.391304	0.0869565	-0.000223909
0.391304	0.108696	-0.000286664
0.391304	0.130435	-0.000350881
0.391304	0.152174	-0.000416878
0.391304	0.173913	-0.000484985
0.391304	0.195652	-0.000555535
0.391304	0.217391	-0.000628872
0.391304	0.23913	-0.00070535
0.391304	0.26087	-0.000785333
0.391304	0.282609	-0.000869202
0.391304	0.304348	-0.000957394
0.391304	0.326087	-0.00105076
0.391304	0.347826	-0.00115249
0.391304	0.369565	-0.0012626
0.391304	0.391304	-0.00137919
0.391304	0.413043	-0.00150228
0.391304	0.434783	-0.00163231
0.391304	0.456522	-0.00176978
0.391304	0.478261	-0.00191522
0.391304	0.5	-0.00206916
0.391304	0.521739	-0.00223218
0.391304	0.543478	-0.00240485
0.391304	0.565217	-0.0025878
0.391304	0.586957	-0.00278165
0.391304	0.608696	-0.00298705
0.391304	0.630435	-0.00320474
0.391304	0.652174	-0.00343584
0.391304	0.673913	-0.00368359
0.391304	0.695652	-0.00394937
0.391304	0.717391	-0.00423108
0.391304	0.73913	-0.00452907
0.391304	0.76087	-0.00484422
0.391304	0.782609	-0.00517758
0.391304	0.804348	-0.00553029
0.391304	0.826087	-0.00590366
0.391304	0.847826	-0.00629915
0.391304	0.869565	-0.00671843
0.391304	0.891304	-0.00716339
0.391304	0.913043	-0.00763586
0.391304	0.934783	-0.00813191
0.391304	0.956522	-0.00856252
0.391304	0.978261	-0.00797556
0.391304	1	0

0.413043	0	0
0.413043	0.0217391	-4.44753e-05
0.413043	0.0434783	-0.000104605
0.413043	0.0652174	-0.000166965
0.413043	0.0869565	-0.00023032
0.413043	0.108696	-0.000294866
0.413043	0.130435	-0.000360921
0.413043	0.152174	-0.000428817
0.413043	0.173913	-0.000498893
0.413043	0.195652	-0.000571495
0.413043	0.217391	-0.000646981
0.413043	0.23913	-0.000725717
0.413043	0.26087	-0.000808081
0.413043	0.282609	-0.000894468
0.413043	0.304348	-0.000985331
0.413043	0.326087	-0.00108154
0.413043	0.347826	-0.0011863
0.413043	0.369565	-0.00129966
0.413043	0.391304	-0.00141971
0.413043	0.413043	-0.0015465
0.413043	0.434783	-0.0016805
0.413043	0.456522	-0.00182221
0.413043	0.478261	-0.00197219
0.413043	0.5	-0.00213101
0.413043	0.521739	-0.00229924
0.413043	0.543478	-0.00247749
0.413043	0.565217	-0.0026664
0.413043	0.586957	-0.00286661
0.413043	0.608696	-0.00307879
0.413043	0.630435	-0.00330367
0.413043	0.652174	-0.00354239
0.413043	0.673913	-0.00379821
0.413043	0.695652	-0.00407243
0.413043	0.717391	-0.00436296
0.413043	0.73913	-0.00467009
0.413043	0.76087	-0.00499465
0.413043	0.782609	-0.00533759
0.413043	0.804348	-0.00569993
0.413043	0.826087	-0.0060828
0.413043	0.847826	-0.00648743
0.413043	0.869565	-0.00691519
0.413043	0.891304	-0.00736754
0.413043	0.913043	-0.00784575
0.413043	0.934783	-0.0083447
0.413043	0.956522	-0.00876946
0.413043	0.978261	-0.00813528
0.413043	1	0

0.434783	0	0
0.434783	0.0217391	-4.55084e-05
0.434783	0.0434783	-0.000106997
0.434783	0.0652174	-0.000170763
0.434783	0.0869565	-0.00023555
0.434783	0.108696	-0.00030156
0.434783	0.130435	-0.000369121
0.434783	0.152174	-0.000438577
0.434783	0.173913	-0.000510275
0.434783	0.195652	-0.000584575
0.434783	0.217391	-0.000661843
0.434783	0.23913	-0.000742459
0.434783	0.26087	-0.000826813
0.434783	0.282609	-0.000915314
0.434783	0.304348	-0.00100843
0.434783	0.326087	-0.00110705
0.434783	0.347826	-0.00121439
0.434783	0.369565	-0.00133052
0.434783	0.391304	-0.00145354
0.434783	0.413043	-0.00158353
0.434783	0.434783	-0.00172096
0.434783	0.456522	-0.00186637
0.434783	0.478261	-0.00202034
0.434783	0.5	-0.00218343
0.434783	0.521739	-0.00235628
0.434783	0.543478	-0.00253948
0.434783	0.565217	-0.00273371
0.434783	0.586957	-0.00293961
0.434783	0.608696	-0.00315787
0.434783	0.630435	-0.00338923
0.434783	0.652174	-0.00363484
0.434783	0.673913	-0.00389794
0.434783	0.695652	-0.0041798
0.434783	0.717391	-0.0044783
0.434783	0.73913	-0.00479369
0.434783	0.76087	-0.0051267
0.434783	0.782609	-0.00547819
0.434783	0.804348	-0.00584904
0.434783	0.826087	-0.00624018
0.434783	0.847826	-0.0066526
0.434783	0.869565	-0.00708732
0.434783	0.891304	-0.00754542
0.434783	0.913043	-0.00802761
0.434783	0.934783	-0.00852765
0.434783	0.956522	-0.00894541
0.434783	0.978261	-0.00826859
0.434783	1	0

0.456522	0	0
0.456522	0.0217391	-4.63054e-05
0.456522	0.0434783	-0.000108835
0.456522	0.0652174	-0.000173679
0.456522	0.0869565	-0.000239564
0.456522	0.108696	-0.000306702
0.456522	0.130435	-0.000375428
0.456522	0.152174	-0.000446094
0.456522	0.173913	-0.000519057
0.456522	0.195652	-0.000594686
0.456522	0.217391	-0.000673358
0.456522	0.23913	-0.000755462
0.456522	0.26087	-0.000841402
0.456522	0.282609	-0.000931598
0.456522	0.304348	-0.00102653
0.456522	0.326087	-0.00112711
0.456522	0.347826	-0.00123657
0.456522	0.369565	-0.00135497
0.456522	0.391304	-0.00148046
0.456522	0.413043	-0.00161312
0.456522	0.434783	-0.00175344
0.456522	0.456522	-0.00190199
0.456522	0.478261	-0.00205934
0.456522	0.5	-0.00222612
0.456522	0.521739	-0.00240294
0.456522	0.543478	-0.00259046
0.456522	0.565217	-0.00278934
0.456522	0.586957	-0.00300024
0.456522	0.608696	-0.00322389
0.456522	0.630435	-0.00346102
0.456522	0.652174	-0.00371278
0.456522	0.673913	-0.00398241
0.456522	0.695652	-0.00427116
0.456522	0.717391	-0.00457684
0.456522	0.73913	-0.00489965
0.456522	0.76087	-0.00524027
0.456522	0.782609	-0.00559943
0.456522	0.804348	-0.00597786
0.456522	0.826087	-0.00637628
0.456522	0.847826	-0.00679545
0.456522	0.869565	-0.00723605
0.456522	0.891304	-0.00769878
0.456522	0.913043	-0.00818382
0.456522	0.934783	-0.00868395
0.456522	0.956522	-0.00909445
0.456522	0.978261	-0.00837976
0.456522	1	0

0.478261	0	0
0.478261	0.0217391	-4.68609e-05
0.478261	0.0434783	-0.000110107
0.478261	0.0652174	-0.000175691
0.478261	0.0869565	-0.000242336
0.478261	0.108696	-0.000310256
0.478261	0.130435	-0.000379796
0.478261	0.152174	-0.000451313
0.478261	0.173913	-0.000525173
0.478261	0.195652	-0.000601753
0.478261	0.217391	-0.00068144
0.478261	0.23913	-0.000764631
0.478261	0.26087	-0.00085174
0.478261	0.282609	-0.000943198
0.478261	0.304348	-0.0010395
0.478261	0.326087	-0.00114157
0.478261	0.347826	-0.00125266
0.478261	0.369565	-0.00137284
0.478261	0.391304	-0.00150027
0.478261	0.413043	-0.00163505
0.478261	0.434783	-0.0017777
0.478261	0.456522	-0.00192879
0.478261	0.478261	-0.00208893
0.478261	0.5	-0.00225876
0.478261	0.521739	-0.00243892
0.478261	0.543478	-0.00263008
0.478261	0.565217	-0.00283293
0.478261	0.586957	-0.00304815
0.478261	0.608696	-0.00327647
0.478261	0.630435	-0.00351865
0.478261	0.652174	-0.00377584
0.478261	0.673913	-0.00405129
0.478261	0.695652	-0.00434618
0.478261	0.717391	-0.00465831
0.478261	0.73913	-0.00498782
0.478261	0.76087	-0.00533531
0.478261	0.782609	-0.0057014
0.478261	0.804348	-0.00608667
0.478261	0.826087	-0.00649166
0.478261	0.847826	-0.00691685
0.478261	0.869565	-0.00736265
0.478261	0.891304	-0.00782937
0.478261	0.913043	-0.00831672
0.478261	0.934783	-0.00881661
0.478261	0.956522	-0.00922027
0.478261	0.978261	-0.00847246
0.478261	1	0

0.5	0	0
0.5	0.0217391	-4.71701e-05
0.5	0.0434783	-0.000110801
0.5	0.0652174	-0.000176783
0.5	0.0869565	-0.00024384
0.5	0.108696	-0.000312191
0.5	0.130435	-0.000382186
0.5	0.152174	-0.000454188
0.5	0.173913	-0.00052857
0.5	0.195652	-0.000605715
0.5	0.217391	-0.000686016
0.5	0.23913	-0.000769881
0.5	0.26087	-0.000857732
0.5	0.282609	-0.00095001
0.5	0.304348	-0.00104722
0.5	0.326087	-0.0011503
0.5	0.347826	-0.00126252
0.5	0.369565	-0.00138396
0.5	0.391304	-0.00151279
0.5	0.413043	-0.00164912
0.5	0.434783	-0.0017935
0.5	0.456522	-0.00194653
0.5	0.478261	-0.00210884
0.5	0.5	-0.00228107
0.5	0.521739	-0.0024639
0.5	0.543478	-0.00265802
0.5	0.565217	-0.00286414
0.5	0.586957	-0.00308297
0.5	0.608696	-0.00331525
0.5	0.630435	-0.00356176
0.5	0.652174	-0.00382366
0.5	0.673913	-0.00410421
0.5	0.695652	-0.00440456
0.5	0.717391	-0.00472245
0.5	0.73913	-0.00505801
0.5	0.76087	-0.00541176
0.5	0.782609	-0.00578419
0.5	0.804348	-0.00617577
0.5	0.826087	-0.00658683
0.5	0.847826	-0.00701763
0.5	0.869565	-0.00746831
0.5	0.891304	-0.00793881
0.5	0.913043	-0.00842845
0.5	0.934783	-0.00892832
0.5	0.956522	-0.00932613
0.5	0.978261	-0.0085498
0.5	1	0

0.521739	0	0
0.521739	0.0217391	-4.7229e-05
0.521739	0.0434783	-0.000110908
0.521739	0.0652174	-0.000176941
0.521739	0.0869565	-0.000244058
0.521739	0.108696	-0.000312483
0.521739	0.130435	-0.000382569
0.521739	0.152174	-0.000454683
0.521739	0.173913	-0.000529205
0.521739	0.195652	-0.00060652
0.521739	0.217391	-0.00068703
0.521739	0.23913	-0.000771147
0.521739	0.26087	-0.000859301
0.521739	0.282609	-0.000951943
0.521739	0.304348	-0.00104959
0.521739	0.326087	-0.00115319
0.521739	0.347826	-0.00126602
0.521739	0.369565	-0.00138818
0.521739	0.391304	-0.00151784
0.521739	0.413043	-0.00165515
0.521739	0.434783	-0.00180066
0.521739	0.456522	-0.001955
0.521739	0.478261	-0.00211881
0.521739	0.5	-0.00229278
0.521739	0.521739	-0.00247759
0.521739	0.543478	-0.00267396
0.521739	0.565217	-0.00288263
0.521739	0.586957	-0.00310435
0.521739	0.608696	-0.00333986
0.521739	0.630435	-0.00358997
0.521739	0.652174	-0.00385587
0.521739	0.673913	-0.00414082
0.521739	0.695652	-0.00444596
0.521739	0.717391	-0.004769
0.521739	0.73913	-0.00511003
0.521739	0.76087	-0.00546951
0.521739	0.782609	-0.00584785
0.521739	0.804348	-0.00624537
0.521739	0.826087	-0.00666226
0.521739	0.847826	-0.00709855
0.521739	0.869565	-0.00755411
0.521739	0.891304	-0.00802859
0.521739	0.913043	-0.00852092
0.521739	0.934783	-0.00902149
0.521739	0.956522	-0.00941482
0.521739	0.978261	-0.00861437
0.521739	1	0

0.543478	0	0
0.543478	0.0217391	-4.70346e-05
0.543478	0.0434783	-0.000110422
0.543478	0.0652174	-0.000176156
0.543478	0.0869565	-0.000242977
0.543478	0.108696	-0.000311114
0.543478	0.130435	-0.000380922
0.543478	0.152174	-0.000452773
0.543478	0.173913	-0.000527045
0.543478	0.195652	-0.000604131
0.543478	0.217391	-0.000684435
0.543478	0.23913	-0.000768376
0.543478	0.26087	-0.000856388
0.543478	0.282609	-0.000948929
0.543478	0.304348	-0.00104652
0.543478	0.326087	-0.00115014
0.543478	0.347826	-0.00126305
0.543478	0.369565	-0.00138538
0.543478	0.391304	-0.0015153
0.543478	0.413043	-0.00165299
0.543478	0.434783	-0.001799
0.543478	0.456522	-0.001954
0.543478	0.478261	-0.00211864
0.543478	0.5	-0.00229364
0.543478	0.521739	-0.00247971
0.543478	0.543478	-0.0026776
0.543478	0.565217	-0.00288808
0.543478	0.586957	-0.00311193
0.543478	0.608696	-0.00334992
0.543478	0.630435	-0.00360289
0.543478	0.652174	-0.00387207
0.543478	0.673913	-0.00416074
0.543478	0.695652	-0.00447001
0.543478	0.717391	-0.00479761
0.543478	0.73913	-0.0051436
0.543478	0.76087	-0.00550839
0.543478	0.782609	-0.00589233
0.543478	0.804348	-0.00629562
0.543478	0.826087	-0.00671829
0.543478	0.847826	-0.00716019
0.543478	0.869565	-0.00762096
0.543478	0.891304	-0.00809996
0.543478	0.913043	-0.00859577
0.543478	0.934783	-0.00909815
0.543478	0.956522	-0.00948871
0.543478	0.978261	-0.00866828
0.543478	1	0

0.565217	0	0
0.565217	0.0217391	-4.65849e-05
0.565217	0.0434783	-0.00010934
0.565217	0.0652174	-0.00017442
0.565217	0.0869565	-0.000240588
0.565217	0.108696	-0.000308074
0.565217	0.130435	-0.000377234
0.565217	0.152174	-0.000448439
0.565217	0.173913	-0.000522072
0.565217	0.195652	-0.000598524
0.565217	0.217391	-0.000678204
0.565217	0.23913	-0.000761533
0.565217	0.26087	-0.00084895
0.565217	0.282609	-0.000940918
0.565217	0.304348	-0.00103797
0.565217	0.326087	-0.00114108
0.565217	0.347826	-0.00125354
0.565217	0.369565	-0.00137547
0.565217	0.391304	-0.00150505
0.565217	0.413043	-0.00164249
0.565217	0.434783	-0.00178836
0.565217	0.456522	-0.00194334
0.565217	0.478261	-0.00210812
0.565217	0.5	-0.00228342
0.565217	0.521739	-0.00247001
0.565217	0.543478	-0.00266866
0.565217	0.565217	-0.00288017
0.565217	0.586957	-0.00310536
0.565217	0.608696	-0.00334506
0.565217	0.630435	-0.00360013
0.565217	0.652174	-0.00387184
0.565217	0.673913	-0.00416353
0.565217	0.695652	-0.0044763
0.565217	0.717391	-0.00480789
0.565217	0.73913	-0.00515837
0.565217	0.76087	-0.00552813
0.565217	0.782609	-0.00591746
0.565217	0.804348	-0.00632648
0.565217	0.826087	-0.00675509
0.565217	0.847826	-0.00720297
0.565217	0.869565	-0.00766955
0.565217	0.891304	-0.00815392
0.565217	0.913043	-0.00865437
0.565217	0.934783	-0.00916
0.565217	0.956522	-0.00954978
0.565217	0.978261	-0.00871326
0.565217	1	0

0.586957	0	0
0.586957	0.0217391	-4.58786e-05
0.586957	0.0434783	-0.000107659
0.586957	0.0652174	-0.000171733
0.586957	0.0869565	-0.00023689
0.586957	0.108696	-0.000303361
0.586957	0.130435	-0.000371501
0.586957	0.152174	-0.000441679
0.586957	0.173913	-0.000514278
0.586957	0.195652	-0.000589691
0.586957	0.217391	-0.000668324
0.586957	0.23913	-0.000750602
0.586957	0.26087	-0.000836966
0.586957	0.282609	-0.000927882
0.586957	0.304348	-0.00102389
0.586957	0.326087	-0.00112597
0.586957	0.347826	-0.00123742
0.586957	0.369565	-0.00135836
0.586957	0.391304	-0.00148701
0.586957	0.413043	-0.00162356
0.586957	0.434783	-0.00176862
0.586957	0.456522	-0.00192288
0.586957	0.478261	-0.00208706
0.586957	0.5	-0.00226192
0.586957	0.521739	-0.00244825
0.586957	0.543478	-0.00264686
0.586957	0.565217	-0.00285859
0.586957	0.586957	-0.0030843
0.586957	0.608696	-0.00332488
0.586957	0.630435	-0.00358124
0.586957	0.652174	-0.00385472
0.586957	0.673913	-0.00414869
0.586957	0.695652	-0.00446431
0.586957	0.717391	-0.00479933
0.586957	0.73913	-0.00515386
0.586957	0.76087	-0.0055283
0.586957	0.782609	-0.0059229
0.586957	0.804348	-0.00633774
0.586957	0.826087	-0.00677262
0.586957	0.847826	-0.00722706
0.586957	0.869565	-0.0077003
0.586957	0.891304	-0.00819121
0.586957	0.913043	-0.00869773
0.586957	0.934783	-0.00920841
0.586957	0.956522	-0.00959964
0.586957	0.978261	-0.00875076
0.586957	1	0

0.608696	0	0
0.608696	0.0217391	-4.49153e-05
0.608696	0.0434783	-0.000105381
0.608696	0.0652174	-0.000168097
0.608696	0.0869565	-0.000231887
0.608696	0.108696	-0.000296981
0.608696	0.130435	-0.00036373
0.608696	0.152174	-0.000432502
0.608696	0.173913	-0.000503674
0.608696	0.195652	-0.000577639
0.608696	0.217391	-0.000654803
0.608696	0.23913	-0.000735589
0.608696	0.26087	-0.000820438
0.608696	0.282609	-0.000909819
0.608696	0.304348	-0.00100427
0.608696	0.326087	-0.00110479
0.608696	0.347826	-0.00121466
0.608696	0.369565	-0.00133404
0.608696	0.391304	-0.00146112
0.608696	0.413043	-0.00159612
0.608696	0.434783	-0.00173968
0.608696	0.456522	-0.00189251
0.608696	0.478261	-0.00205534
0.608696	0.5	-0.00222897
0.608696	0.521739	-0.00241421
0.608696	0.543478	-0.00261194
0.608696	0.565217	-0.00282303
0.608696	0.586957	-0.00304839
0.608696	0.608696	-0.00328898
0.608696	0.630435	-0.00354578
0.608696	0.652174	-0.0038202
0.608696	0.673913	-0.00411569
0.608696	0.695652	-0.00443346
0.608696	0.717391	-0.00477132
0.608696	0.73913	-0.00512946
0.608696	0.76087	-0.0055083
0.608696	0.782609	-0.00590813
0.608696	0.804348	-0.00632898
0.608696	0.826087	-0.00677058
0.608696	0.847826	-0.00723237
0.608696	0.869565	-0.00771337
0.608696	0.891304	-0.00821223
0.608696	0.913043	-0.00872661
0.608696	0.934783	-0.00924441
0.608696	0.956522	-0.00963957
0.608696	0.978261	-0.00878189
0.608696	1	0

0.630435	0	0
0.630435	0.0217391	-4.36971e-05
0.630435	0.0434783	-0.000102514
0.630435	0.0652174	-0.000163529
0.630435	0.0869565	-0.000225604
0.630435	0.108696	-0.000288966
0.630435	0.130435	-0.00035396
0.630435	0.152174	-0.00042095
0.630435	0.173913	-0.000490309
0.630435	0.195652	-0.000562425
0.630435	0.217391	-0.000637701
0.630435	0.23913	-0.000716557
0.630435	0.26087	-0.000799433
0.630435	0.282609	-0.000886797
0.630435	0.304348	-0.000979189
0.630435	0.326087	-0.00107761
0.630435	0.347826	-0.00118534
0.630435	0.369565	-0.00130254
0.630435	0.391304	-0.00142741
0.630435	0.413043	-0.00156021
0.630435	0.434783	-0.00170156
0.630435	0.456522	-0.0018522
0.630435	0.478261	-0.0020129
0.630435	0.5	-0.00218447
0.630435	0.521739	-0.00236778
0.630435	0.543478	-0.00256373
0.630435	0.565217	-0.00277327
0.630435	0.586957	-0.00299736
0.630435	0.608696	-0.00323702
0.630435	0.630435	-0.00349333
0.630435	0.652174	-0.00376779
0.630435	0.673913	-0.00406396
0.630435	0.695652	-0.00438312
0.630435	0.717391	-0.00472319
0.630435	0.73913	-0.00508444
0.630435	0.76087	-0.00546741
0.630435	0.782609	-0.00587241
0.630435	0.804348	-0.00629952
0.630435	0.826087	-0.00674844
0.630435	0.847826	-0.0072185
0.630435	0.869565	-0.00770859
0.630435	0.891304	-0.00821712
0.630435	0.913043	-0.00874142
0.630435	0.934783	-0.00926876
0.630435	0.956522	-0.00967057
0.630435	0.978261	-0.00880756
0.630435	1	0

0.652174	0	0
0.652174	0.0217391	-4.22499e-05
0.652174	0.0434783	-9.91221e-05
0.652174	0.0652174	-0.000158132
0.652174	0.0869565	-0.000218182
0.652174	0.108696	-0.000279494
0.652174	0.130435	-0.000342407
0.652174	0.152174	-0.000407277
0.652174	0.173913	-0.000474472
0.652174	0.195652	-0.000544372
0.652174	0.217391	-0.000617377
0.652174	0.23913	-0.000693901
0.652174	0.26087	-0.00077438
0.652174	0.282609	-0.000859279
0.652174	0.304348	-0.000949137
0.652174	0.326087	-0.00104494
0.652174	0.347826	-0.00114996
0.652174	0.369565	-0.00126438
0.652174	0.391304	-0.00138641
0.652174	0.413043	-0.00151631
0.652174	0.434783	-0.00165473
0.652174	0.456522	-0.00180242
0.652174	0.478261	-0.00196018
0.652174	0.5	-0.00212885
0.652174	0.521739	-0.00230933
0.652174	0.543478	-0.00250258
0.652174	0.565217	-0.0027096
0.652174	0.586957	-0.00293142
0.652174	0.608696	-0.00316916
0.652174	0.630435	-0.00342397
0.652174	0.652174	-0.0036975
0.652174	0.673913	-0.00399342
0.652174	0.695652	-0.00431308
0.652174	0.717391	-0.00465457
0.652174	0.73913	-0.00501834
0.652174	0.76087	-0.00540505
0.652174	0.782609	-0.00581513
0.652174	0.804348	-0.00624874
0.652174	0.826087	-0.0067056
0.652174	0.847826	-0.007185
0.652174	0.869565	-0.00768568
0.652174	0.891304	-0.00820583
0.652174	0.913043	-0.00874241
0.652174	0.934783	-0.00928198
0.652174	0.956522	-0.00969337
0.652174	0.978261	-0.00882851
0.652174	1	0

0.673913	0	0
0.673913	0.0217391	-4.07348e-05
0.673913	0.0434783	-9.55534e-05
0.673913	0.0652174	-0.000152436
0.673913	0.0869565	-0.000210329
0.673913	0.108696	-0.000269452
0.673913	0.130435	-0.000330135
0.673913	0.152174	-0.000392725
0.673913	0.173913	-0.000457582
0.673913	0.195652	-0.00052508
0.673913	0.217391	-0.000595608
0.673913	0.23913	-0.000669574
0.673913	0.26087	-0.00074741
0.673913	0.282609	-0.000829573
0.673913	0.304348	-0.000916594
0.673913	0.326087	-0.00100943
0.673913	0.347826	-0.00111099
0.673913	0.369565	-0.00122201
0.673913	0.391304	-0.00134056
0.673913	0.413043	-0.00146688
0.673913	0.434783	-0.00160164
0.673913	0.456522	-0.0017456
0.673913	0.478261	-0.00189959
0.673913	0.5	-0.00206448
0.673913	0.521739	-0.00224121
0.673913	0.543478	-0.00243078
0.673913	0.565217	-0.00263425
0.673913	0.586957	-0.00285274
0.673913	0.608696	-0.00308746
0.673913	0.630435	-0.00333967
0.673913	0.652174	-0.00361117
0.673913	0.673913	-0.00390595
0.673913	0.695652	-0.00422491
0.673913	0.717391	-0.00456674
0.673913	0.73913	-0.0049321
0.673913	0.76087	-0.00532187
0.673913	0.782609	-0.00573668
0.673913	0.804348	-0.00617681
0.673913	0.826087	-0.00664211
0.673913	0.847826	-0.00713185
0.673913	0.869565	-0.0076447
0.673913	0.891304	-0.00817856
0.673913	0.913043	-0.00873002
0.673913	0.934783	-0.00928477
0.673913	0.956522	-0.00970884
0.673913	0.978261	-0.00884536
0.673913	1	0

0.695652	0	0
0.695652	0.0217391	-3.91394e-05
0.695652	0.0434783	-9.17821e-05
0.695652	0.0652174	-0.000146402
0.695652	0.0869565	-0.000201996
0.695652	0.108696	-0.000258778
0.695652	0.130435	-0.000317069
0.695652	0.152174	-0.000377206
0.695652	0.173913	-0.000439538
0.695652	0.195652	-0.000504429
0.695652	0.217391	-0.000572258
0.695652	0.23913	-0.000643424
0.695652	0.26087	-0.000718349
0.695652	0.282609	-0.000797482
0.695652	0.304348	-0.000881344
0.695652	0.326087	-0.000970854
0.695652	0.347826	-0.00106876
0.695652	0.369565	-0.00117582
0.695652	0.391304	-0.00129023
0.695652	0.413043	-0.00141226
0.695652	0.434783	-0.00154261
0.695652	0.456522	-0.00168204
0.695652	0.478261	-0.00183139
0.695652	0.5	-0.00199157
0.695652	0.521739	-0.00216355
0.695652	0.543478	-0.00234838
0.695652	0.565217	-0.00254719
0.695652	0.586957	-0.00276119
0.695652	0.608696	-0.00299165
0.695652	0.630435	-0.00324001
0.695652	0.652174	-0.00350816
0.695652	0.673913	-0.00380012
0.695652	0.695652	-0.004117
0.695652	0.717391	-0.00445787
0.695652	0.73913	-0.00482372
0.695652	0.76087	-0.00521571
0.695652	0.782609	-0.00563476
0.695652	0.804348	-0.0060814
0.695652	0.826087	-0.00655565
0.695652	0.847826	-0.0070569
0.695652	0.869565	-0.00758373
0.695652	0.891304	-0.00813385
0.695652	0.913043	-0.00870334
0.695652	0.934783	-0.00927692
0.695652	0.956522	-0.00971739
0.695652	0.978261	-0.0088586
0.695652	1	0

0.717391	0	0
0.717391	0.0217391	-3.73304e-05
0.717391	0.0434783	-8.75216e-05
0.717391	0.0652174	-0.000139595
0.717391	0.0869565	-0.000192598
0.717391	0.108696	-0.000246741
0.717391	0.130435	-0.000302332
0.717391	0.152174	-0.000359695
0.717391	0.173913	-0.000419167
0.717391	0.195652	-0.0004811
0.717391	0.217391	-0.00054586
0.717391	0.23913	-0.000613834
0.717391	0.26087	-0.00068543
0.717391	0.282609	-0.000761086
0.717391	0.304348	-0.00084131
0.717391	0.326087	-0.000926983
0.717391	0.347826	-0.00102069
0.717391	0.369565	-0.00112316
0.717391	0.391304	-0.00123275
0.717391	0.413043	-0.00134979
0.717391	0.434783	-0.00147494
0.717391	0.456522	-0.00160899
0.717391	0.478261	-0.0017528
0.717391	0.5	-0.00190729
0.717391	0.521739	-0.00207347
0.717391	0.543478	-0.00225243
0.717391	0.565217	-0.00244536
0.717391	0.586957	-0.00265356
0.717391	0.608696	-0.00287842
0.717391	0.630435	-0.00312149
0.717391	0.652174	-0.00338482
0.717391	0.673913	-0.00367246
0.717391	0.695652	-0.00398577
0.717391	0.717391	-0.0043243
0.717391	0.73913	-0.00468944
0.717391	0.76087	-0.00508271
0.717391	0.782609	-0.00550542
0.717391	0.804348	-0.00595851
0.717391	0.826087	-0.00644233
0.717391	0.847826	-0.00695645
0.717391	0.869565	-0.00749952
0.717391	0.891304	-0.00806902
0.717391	0.913043	-0.00866049
0.717391	0.934783	-0.00925745
0.717391	0.956522	-0.00971892
0.717391	0.978261	-0.00886853
0.717391	1	0

0.73913	0	0
0.73913	0.0217391	-3.52977e-05
0.73913	0.0434783	-8.2746e-05
0.73913	0.0652174	-0.000131972
0.73913	0.0869565	-0.000182081
0.73913	0.108696	-0.000233272
0.73913	0.130435	-0.00028584
0.73913	0.152174	-0.000340096
0.73913	0.173913	-0.000396361
0.73913	0.195652	-0.00045497
0.73913	0.217391	-0.000516277
0.73913	0.23913	-0.000580652
0.73913	0.26087	-0.000648489
0.73913	0.282609	-0.000720209
0.73913	0.304348	-0.000796303
0.73913	0.326087	-0.00087761
0.73913	0.347826	-0.000966543
0.73913	0.369565	-0.00106381
0.73913	0.391304	-0.00116793
0.73913	0.413043	-0.00127923
0.73913	0.434783	-0.00139841
0.73913	0.456522	-0.00152623
0.73913	0.478261	-0.00166357
0.73913	0.5	-0.00181136
0.73913	0.521739	-0.00197064
0.73913	0.543478	-0.00214254
0.73913	0.565217	-0.00232831
0.73913	0.586957	-0.00252932
0.73913	0.608696	-0.00274708
0.73913	0.630435	-0.00298327
0.73913	0.652174	-0.00324011
0.73913	0.673913	-0.00352169
0.73913	0.695652	-0.00382969
0.73913	0.717391	-0.00416419
0.73913	0.73913	-0.00452704
0.73913	0.76087	-0.00492026
0.73913	0.782609	-0.00534572
0.73913	0.804348	-0.00580491
0.73913	0.826087	-0.0062987
0.73913	0.847826	-0.00682707
0.73913	0.869565	-0.00738884
0.73913	0.891304	-0.00798134
0.73913	0.913043	-0.00859951
0.73913	0.934783	-0.00922534
0.73913	0.956522	-0.00971327
0.73913	0.978261	-0.00887536
0.73913	1	0

0.76087	0	0
0.76087	0.0217391	-3.30524e-05
0.76087	0.0434783	-7.74778e-05
0.76087	0.0652174	-0.000123568
0.76087	0.0869565	-0.000170488
0.76087	0.108696	-0.000218426
0.76087	0.130435	-0.000267662
0.76087	0.152174	-0.000318489
0.76087	0.173913	-0.000371211
0.76087	0.195652	-0.000426146
0.76087	0.217391	-0.000483629
0.76087	0.23913	-0.000544012
0.76087	0.26087	-0.00060767
0.76087	0.282609	-0.000675008
0.76087	0.304348	-0.000746492
0.76087	0.326087	-0.000822916
0.76087	0.347826	-0.000906519
0.76087	0.369565	-0.000997974
0.76087	0.391304	-0.00109596
0.76087	0.413043	-0.00120081
0.76087	0.434783	-0.00131322
0.76087	0.456522	-0.00143396
0.76087	0.478261	-0.00156389
0.76087	0.5	-0.00170394
0.76087	0.521739	-0.00185519
0.76087	0.543478	-0.00201878
0.76087	0.565217	-0.00219601
0.76087	0.586957	-0.00238834
0.76087	0.608696	-0.00259736
0.76087	0.630435	-0.0028249
0.76087	0.652174	-0.00307334
0.76087	0.673913	-0.00334685
0.76087	0.695652	-0.00364743
0.76087	0.717391	-0.00397577
0.76087	0.73913	-0.00433426
0.76087	0.76087	-0.00472557
0.76087	0.782609	-0.0051523
0.76087	0.804348	-0.00561671
0.76087	0.826087	-0.00612048
0.76087	0.847826	-0.00666429
0.76087	0.869565	-0.00724737
0.76087	0.891304	-0.00786706
0.76087	0.913043	-0.0085176
0.76087	0.934783	-0.00917904
0.76087	0.956522	-0.00970007
0.76087	0.978261	-0.00887925
0.76087	1	0

0.782609	0	0
0.782609	0.0217391	-3.06075e-05
0.782609	0.0434783	-7.17466e-05
0.782609	0.0652174	-0.000114428
0.782609	0.0869565	-0.000157882
0.782609	0.108696	-0.000202283
0.782609	0.130435	-0.000247894
0.782609	0.152174	-0.000294987
0.782609	0.173913	-0.000343848
0.782609	0.195652	-0.000394774
0.782609	0.217391	-0.000448079
0.782609	0.23913	-0.000504096
0.782609	0.26087	-0.000563177
0.782609	0.282609	-0.000625702
0.782609	0.304348	-0.000692115
0.782609	0.326087	-0.000763157
0.782609	0.347826	-0.000840887
0.782609	0.369565	-0.00092594
0.782609	0.391304	-0.00101714
0.782609	0.413043	-0.00111485
0.782609	0.434783	-0.00121971
0.782609	0.456522	-0.00133251
0.782609	0.478261	-0.00145407
0.782609	0.5	-0.00158534
0.782609	0.521739	-0.00172738
0.782609	0.543478	-0.00188137
0.782609	0.565217	-0.00204863
0.782609	0.586957	-0.00223067
0.782609	0.608696	-0.00242917
0.782609	0.630435	-0.0026461
0.782609	0.652174	-0.00288398
0.782609	0.673913	-0.00314705
0.782609	0.695652	-0.00343769
0.782609	0.717391	-0.00375722
0.782609	0.73913	-0.00410867
0.782609	0.76087	-0.00449548
0.782609	0.782609	-0.00492118
0.782609	0.804348	-0.00538915
0.782609	0.826087	-0.00590222
0.782609	0.847826	-0.00646222
0.782609	0.869565	-0.00706925
0.782609	0.891304	-0.00772091
0.782609	0.913043	-0.00841075
0.782609	0.934783	-0.00911629
0.782609	0.956522	-0.00967871
0.782609	0.978261	-0.00888029
0.782609	1	0

0.804348	0	0
0.804348	0.0217391	-2.79773e-05
0.804348	0.0434783	-6.55848e-05
0.804348	0.0652174	-0.000104604
0.804348	0.0869565	-0.000144332
0.804348	0.108696	-0.000184932
0.804348	0.130435	-0.000226643
0.804348	0.152174	-0.000269717
0.804348	0.173913	-0.000314419
0.804348	0.195652	-0.000361023
0.804348	0.217391	-0.000409819
0.804348	0.23913	-0.000461116
0.804348	0.26087	-0.000515241
0.804348	0.282609	-0.000572549
0.804348	0.304348	-0.000633452
0.804348	0.326087	-0.000698635
0.804348	0.347826	-0.000769972
0.804348	0.369565	-0.000848055
0.804348	0.391304	-0.00093185
0.804348	0.413043	-0.00102171
0.804348	0.434783	-0.00111828
0.804348	0.456522	-0.00122228
0.804348	0.478261	-0.00133454
0.804348	0.5	-0.00145598
0.804348	0.521739	-0.00158764
0.804348	0.543478	-0.00173069
0.804348	0.565217	-0.00188648
0.804348	0.586957	-0.00205653
0.804348	0.608696	-0.00224261
0.804348	0.630435	-0.00244677
0.804348	0.652174	-0.00267166
0.804348	0.673913	-0.00292159
0.804348	0.695652	-0.0031993
0.804348	0.717391	-0.00350676
0.804348	0.73913	-0.00384771
0.804348	0.76087	-0.0042265
0.804348	0.782609	-0.00464781
0.804348	0.804348	-0.00511647
0.804348	0.826087	-0.00563704
0.804348	0.847826	-0.00621312
0.804348	0.869565	-0.00684642
0.804348	0.891304	-0.00753544
0.804348	0.913043	-0.00827319
0.804348	0.934783	-0.0090338
0.804348	0.956522	-0.00964828
0.804348	0.978261	-0.00887853
0.804348	1	0

0.826087	0	0
0.826087	0.0217391	-2.51768e-05
0.826087	0.0434783	-5.90276e-05
0.826087	0.0652174	-9.41518e-05
0.826087	0.0869565	-0.000129916
0.826087	0.108696	-0.000166469
0.826087	0.130435	-0.000204028
0.826087	0.152174	-0.000242821
0.826087	0.173913	-0.000283089
0.826087	0.195652	-0.00032508
0.826087	0.217391	-0.000369059
0.826087	0.23913	-0.000415308
0.826087	0.26087	-0.000464125
0.826087	0.282609	-0.000515836
0.826087	0.304348	-0.000570818
0.826087	0.326087	-0.000629695
0.826087	0.347826	-0.000694148
0.826087	0.369565	-0.000764721
0.826087	0.391304	-0.000840517
0.826087	0.413043	-0.000921881
0.826087	0.434783	-0.00100941
0.826087	0.456522	-0.0011038
0.826087	0.478261	-0.00120584
0.826087	0.5	-0.0013164
0.826087	0.521739	-0.00143649
0.826087	0.543478	-0.00156727
0.826087	0.565217	-0.00171005
0.826087	0.586957	-0.00186638
0.826087	0.608696	-0.00203802
0.826087	0.630435	-0.00222709
0.826087	0.652174	-0.00243635
0.826087	0.673913	-0.00267008
0.826087	0.695652	-0.00293137
0.826087	0.717391	-0.00322283
0.826087	0.73913	-0.00354893
0.826087	0.76087	-0.00391498
0.826087	0.782609	-0.00432709
0.826087	0.804348	-0.0047919
0.826087	0.826087	-0.00531634
0.826087	0.847826	-0.00590679
0.826087	0.869565	-0.00656778
0.826087	0.891304	-0.00729995
0.826087	0.913043	-0.00809639
0.826087	0.934783	-0.00892678
0.826087	0.956522	-0.00960755
0.826087	0.978261	-0.00887393
0.826087	1	0

0.847826	0	0
0.847826	0.0217391	-2.22224e-05
0.847826	0.0434783	-5.2113e-05
0.847826	0.0652174	-8.31305e-05
0.847826	0.0869565	-0.000114716
0.847826	0.108696	-0.000147
0.847826	0.130435	-0.000180178
0.847826	0.152174	-0.000214451
0.847826	0.173913	-0.000250034
0.847826	0.195652	-0.000287148
0.847826	0.217391	-0.00032603
0.847826	0.23913	-0.000366931
0.847826	0.26087	-0.000410118
0.847826	0.282609	-0.000455884
0.847826	0.304348	-0.000504566
0.847826	0.326087	-0.000556723
0.847826	0.347826	-0.000613837
0.847826	0.369565	-0.000676397
0.847826	0.391304	-0.000743637
0.847826	0.413043	-0.000815881
0.847826	0.434783	-0.000893683
0.847826	0.456522	-0.000977682
0.847826	0.478261	-0.00106861
0.847826	0.5	-0.00116728
0.847826	0.521739	-0.00127466
0.847826	0.543478	-0.00139184
0.847826	0.565217	-0.00152009
0.847826	0.586957	-0.00166091
0.847826	0.608696	-0.00181604
0.847826	0.630435	-0.0019876
0.847826	0.652174	-0.00217835
0.847826	0.673913	-0.00239252
0.847826	0.695652	-0.00263344
0.847826	0.717391	-0.00290429
0.847826	0.73913	-0.00321017
0.847826	0.76087	-0.00355743
0.847826	0.782609	-0.00395364
0.847826	0.804348	-0.00440771
0.847826	0.826087	-0.00492964
0.847826	0.847826	-0.00552991
0.847826	0.869565	-0.00621787
0.847826	0.891304	-0.00699867
0.847826	0.913043	-0.00786734
0.847826	0.934783	-0.00878797
0.847826	0.956522	-0.0095551
0.847826	0.978261	-0.00886795
0.847826	1	0

0.869565	0	0
0.869565	0.0217391	-1.91315e-05
0.869565	0.0434783	-4.48813e-05
0.869565	0.0652174	-7.1605e-05
0.869565	0.0869565	-9.88194e-05
0.869565	0.108696	-0.000126639
0.869565	0.130435	-0.000155231
0.869565	0.152174	-0.000184773
0.869565	0.173913	-0.000215447
0.869565	0.195652	-0.000247449
0.869565	0.217391	-0.000280983
0.869565	0.23913	-0.000316267
0.869565	0.26087	-0.000353535
0.869565	0.282609	-0.000393042
0.869565	0.304348	-0.000435084
0.869565	0.326087	-0.000480146
0.869565	0.347826	-0.000529508
0.869565	0.369565	-0.000583598
0.869565	0.391304	-0.000641772
0.869565	0.413043	-0.000704327
0.869565	0.434783	-0.000771756
0.869565	0.456522	-0.000844635
0.869565	0.478261	-0.00092362
0.869565	0.5	-0.00100946
0.869565	0.521739	-0.00110304
0.869565	0.543478	-0.00120534
0.869565	0.565217	-0.00131757
0.869565	0.586957	-0.00144113
0.869565	0.608696	-0.00157767
0.869565	0.630435	-0.00172924
0.869565	0.652174	-0.00189851
0.869565	0.673913	-0.00208953
0.869565	0.695652	-0.00230575
0.869565	0.717391	-0.00255072
0.869565	0.73913	-0.00283005
0.869565	0.76087	-0.00315091
0.869565	0.782609	-0.00352235
0.869565	0.804348	-0.00395565
0.869565	0.826087	-0.0044646
0.869565	0.847826	-0.00506534
0.869565	0.869565	-0.00577496
0.869565	0.891304	-0.00660765
0.869565	0.913043	-0.00756503
0.869565	0.934783	-0.0086057
0.869565	0.956522	-0.0094882
0.869565	0.978261	-0.00884854
0.869565	1	0

0.891304	0	0
0.891304	0.0217391	-1.59225e-05
0.891304	0.0434783	-3.73754e-05
0.891304	0.0652174	-5.96431e-05
0.891304	0.0869565	-8.23213e-05
0.891304	0.108696	-0.000105506
0.891304	0.130435	-0.000129336
0.891304	0.152174	-0.000153961
0.891304	0.173913	-0.000179534
0.891304	0.195652	-0.000206218
0.891304	0.217391	-0.000234185
0.891304	0.23913	-0.000263619
0.891304	0.26087	-0.000294716
0.891304	0.282609	-0.00032769
0.891304	0.304348	-0.000362792
0.891304	0.326087	-0.000400429
0.891304	0.347826	-0.000441674
0.891304	0.369565	-0.000486888
0.891304	0.391304	-0.000535544
0.891304	0.413043	-0.000587898
0.891304	0.434783	-0.000644378
0.891304	0.456522	-0.000705481
0.891304	0.478261	-0.000771776
0.891304	0.5	-0.000843918
0.891304	0.521739	-0.000922671
0.891304	0.543478	-0.00100892
0.891304	0.565217	-0.00110373
0.891304	0.586957	-0.00120836
0.891304	0.608696	-0.00132431
0.891304	0.630435	-0.00145345
0.891304	0.652174	-0.00159827
0.891304	0.673913	-0.00176247
0.891304	0.695652	-0.00194941
0.891304	0.717391	-0.0021628
0.891304	0.73913	-0.00240839
0.891304	0.76087	-0.00269383
0.891304	0.782609	-0.0030292
0.891304	0.804348	-0.00342793
0.891304	0.826087	-0.00390778
0.891304	0.847826	-0.00449187
0.891304	0.869565	-0.00520881
0.891304	0.891304	-0.00608938
0.891304	0.913043	-0.00715313
0.891304	0.934783	-0.0083598
0.891304	0.956522	-0.00941662
0.891304	0.978261	-0.00891721
0.891304	1	0

0.913043	0	0
0.913043	0.0217391	-1.26149e-05
0.913043	0.0434783	-2.96403e-05
0.913043	0.0652174	-4.73167e-05
0.913043	0.0869565	-6.532e-05
0.913043	0.108696	-8.37263e-05
0.913043	0.130435	-0.000102647
0.913043	0.152174	-0.0001222
0.913043	0.173913	-0.000142509
0.913043	0.195652	-0.000163704
0.913043	0.217391	-0.000185921
0.913043	0.23913	-0.000209307
0.913043	0.26087	-0.000234021
0.913043	0.282609	-0.000260232
0.913043	0.304348	-0.000288141
0.913043	0.326087	-0.000318074
0.913043	0.347826	-0.00035089
0.913043	0.369565	-0.000386882
0.913043	0.391304	-0.00042563
0.913043	0.413043	-0.000467346
0.913043	0.434783	-0.00051238
0.913043	0.456522	-0.000561137
0.913043	0.478261	-0.000614085
0.913043	0.5	-0.000671764
0.913043	0.521739	-0.000734806
0.913043	0.543478	-0.000803951
0.913043	0.565217	-0.000880084
0.913043	0.586957	-0.000964264
0.913043	0.608696	-0.00105778
0.913043	0.630435	-0.00116224
0.913043	0.652174	-0.00127977
0.913043	0.673913	-0.0014136
0.913043	0.695652	-0.00156673
0.913043	0.717391	-0.00174268
0.913043	0.73913	-0.00194689
0.913043	0.76087	-0.00218681
0.913043	0.782609	-0.00247272
0.913043	0.804348	-0.00281911
0.913043	0.826087	-0.00324673
0.913043	0.847826	-0.0037856
0.913043	0.869565	-0.00447878
0.913043	0.891304	-0.00538429
0.913043	0.913043	-0.00656265
0.913043	0.934783	-0.00799612
0.913043	0.956522	-0.00925514
0.913043	0.978261	-0.00844325
0.913043	1	0

0.934783	0	0
0.934783	0.0217391	-9.22882e-06
0.934783	0.0434783	-2.17237e-05
0.934783	0.0652174	-3.47017e-05
0.934783	0.0869565	-4.79205e-05
0.934783	0.108696	-6.14358e-05
0.934783	0.130435	-7.53297e-05
0.934783	0.152174	-8.96891e-05
0.934783	0.173913	-0.000104605
0.934783	0.195652	-0.000120173
0.934783	0.217391	-0.000136494
0.934783	0.23913	-0.000153678
0.934783	0.26087	-0.000171838
0.934783	0.282609	-0.000191102
0.934783	0.304348	-0.000211616
0.934783	0.326087	-0.000233622
0.934783	0.347826	-0.00025776
0.934783	0.369565	-0.000284249
0.934783	0.391304	-0.000312774
0.934783	0.413043	-0.000343497
0.934783	0.434783	-0.000376678
0.934783	0.456522	-0.000412624
0.934783	0.478261	-0.000451688
0.934783	0.5	-0.000494275
0.934783	0.521739	-0.000540866
0.934783	0.543478	-0.000592024
0.934783	0.565217	-0.000648424
0.934783	0.586957	-0.000710879
0.934783	0.608696	-0.000780385
0.934783	0.630435	-0.00085819
0.934783	0.652174	-0.000945963
0.934783	0.673913	-0.00104622
0.934783	0.695652	-0.0011614
0.934783	0.717391	-0.00129441
0.934783	0.73913	-0.00144979
0.934783	0.76087	-0.00163393
0.934783	0.782609	-0.00185595
0.934783	0.804348	-0.00212933
0.934783	0.826087	-0.00247481
0.934783	0.847826	-0.00292562
0.934783	0.869565	-0.00353708
0.934783	0.891304	-0.00440235
0.934783	0.913043	-0.00566492
0.934783	0.934783	-0.00744838
0.934783	0.956522	-0.00944939
0.934783	0.978261	-0.00996798
0.934783	1	0

0.956522	0	0
0.956522	0.0217391	-5.79267e-06
0.956522	0.0434783	-1.36919e-05
0.956522	0.0652174	-2.19029e-05
0.956522	0.0869565	-3.02665e-05
0.956522	0.108696	-3.88177e-05
0.956522	0.130435	-4.76088e-05
0.956522	0.152174	-5.6695e-05
0.956522	0.173913	-6.61342e-05
0.956522	0.195652	-7.59871e-05
0.956522	0.217391	-8.6318e-05
0.956522	0.23913	-9.71956e-05
0.956522	0.26087	-0.000108693
0.956522	0.282609	-0.00012089
0.956522	0.304348	-0.000133878
0.956522	0.326087	-0.00014781
0.956522	0.347826	-0.000163103
0.956522	0.369565	-0.000179899
0.956522	0.391304	-0.000197987
0.956522	0.413043	-0.000217472
0.956522	0.434783	-0.000238523
0.956522	0.456522	-0.000261337
0.956522	0.478261	-0.000286141
0.956522	0.5	-0.000313198
0.956522	0.521739	-0.000342815
0.956522	0.543478	-0.000375358
0.956522	0.565217	-0.000411263
0.956522	0.586957	-0.000451059
0.956522	0.608696	-0.000495393
0.956522	0.630435	-0.00054508
0.956522	0.652174	-0.000601212
0.956522	0.673913	-0.000665447
0.956522	0.695652	-0.000739414
0.956522	0.717391	-0.000825063
0.956522	0.73913	-0.000925476
0.956522	0.76087	-0.00104503
0.956522	0.782609	-0.00119011
0.956522	0.804348	-0.00137044
0.956522	0.826087	-0.00160174
0.956522	0.847826	-0.00191145
0.956522	0.869565	-0.00235236
0.956522	0.891304	-0.00303565
0.956522	0.913043	-0.0041908
0.956522	0.934783	-0.00610167
0.956522	0.956522	-0.00809963
0.956522	0.978261	-0.00638158
0.956522	1	0

0.978261	0	0
0.978261	0.0217391	-2.42674e-06
0.978261	0.0434783	-5.81142e-06
0.978261	0.0652174	-9.33502e-06
0.978261	0.0869565	-1.29234e-05
0.978261	0.108696	-1.65921e-05
0.978261	0.130435	-2.03638e-05
0.978261	0.152174	-2.42625e-05
0.978261	0.173913	-2.83132e-05
0.978261	0.195652	-3.25422e-05
0.978261	0.217391	-3.69771e-05
0.978261	0.23913	-4.16475e-05
0.978261	0.26087	-4.65849e-05
0.978261	0.282609	-5.1823e-05
0.978261	0.304348	-5.73996e-05
0.978261	0.326087	-6.33788e-05
0.978261	0.347826	-6.99509e-05
0.978261	0.369565	-7.7179e-05
0.978261	0.391304	-8.49617e-05
0.978261	0.413043	-9.33458e-05
0.978261	0.434783	-0.000102406
0.978261	0.456522	-0.000112227
0.978261	0.478261	-0.000122909
0.978261	0.5	-0.000134564
0.978261	0.521739	-0.000147325
0.978261	0.543478	-0.000161352
0.978261	0.565217	-0.000176831
0.978261	0.586957	-0.000193991
0.978261	0.608696	-0.00021311
0.978261	0.630435	-0.000234535
0.978261	0.652174	-0.000258732
0.978261	0.673913	-0.000286427
0.978261	0.695652	-0.000318314
0.978261	0.717391	-0.000355213
0.978261	0.73913	-0.000398428
0.978261	0.76087	-0.000449798
0.978261	0.782609	-0.000511974
0.978261	0.804348	-0.000588953
0.978261	0.826087	-0.000687198
0.978261	0.847826	-0.000818555
0.978261	0.869565	-0.00101042
0.978261	0.891304	-0.00134772
0.978261	0.913043	-0.00213103
0.978261	0.934783	-0.00421992
0.978261	0.956522	-0.00860375
0.978261	0.978261	-0.0117302
0.978261	1	0

1	0	0
1	0.0217391	0
1	0.0434783	0
1	0.0652174	0
1	0.0869565	0
1	0.108696	0
1	0.130435	0
1	0.152174	0
1	0.173913	0
1	0.195652	0
1	0.217391	0
1	0.23913	0
1	0.26087	0
1	0.282609	0
1	0.304348	0
1	0.326087	0
1	0.347826	0
1	0.369565	0
1	0.391304	0
1	0.413043	0
1	0.434783	0
1	0.456522	0
1	0.478261	0
1	0.5	0
1	0.521739	0
1	0.543478	0
1	0.565217	0
1	0.586957	0
1	0.608696	0
1	0.630435	0
1	0.652174	0
1	0.673913	0
1	0.695652	0
1	0.717391	0
1	0.73913	0
1	0.76087	0
1	0.782609	0
1	0.804348	0
1	0.826087	0
1	0.847826	0
1	0.869565	0
1	0.891304	0
1	0.913043	0
1	0.934783	0
1	0.956522	0
1	0.978261	0
1	1	0

