horizontal velocity
x y uv
0.5 	 0 	 0
0.5	0.0322581	-0.00770357
0.5	0.0645161	-0.0123628
0.5	0.0967742	-0.0149067
0.5	0.129032	-0.0163443
0.5	0.16129	-0.0173642
0.5	0.193548	-0.018334
0.5	0.225806	-0.0194215
0.5	0.258065	-0.0206977
0.5	0.290323	-0.0221948
0.5	0.322581	-0.023931
0.5	0.354839	-0.0259209
0.5	0.387097	-0.0281776
0.5	0.419355	-0.0307133
0.5	0.451613	-0.0335385
0.5	0.483871	-0.0366612
0.5	0.516129	-0.0400849
0.5	0.548387	-0.0438074
0.5	0.580645	-0.0478187
0.5	0.612903	-0.0520993
0.5	0.645161	-0.0566188
0.5	0.677419	-0.0613352
0.5	0.709677	-0.0661914
0.5	0.741935	-0.0710914
0.5	0.774194	-0.0757518
0.5	0.806452	-0.0790335
0.5	0.83871	-0.0766524
0.5	0.870968	-0.0555698
0.5	0.903226	0.0142742
0.5	0.935484	0.182362
0.5	0.967742	0.504581
0.5 	 1 	 1
