horizontal velocity
x y uv
0 	 0.5 	 0
0.0322581	0.5	0.000611977
0.0645161	0.5	0.000599253
0.0967742	0.5	0.000578604
0.129032	0.5	0.000550798
0.16129	0.5	0.000516782
0.193548	0.5	0.000477591
0.225806	0.5	0.00043426
0.258065	0.5	0.000387753
0.290323	0.5	0.000338917
0.322581	0.5	0.000288453
0.354839	0.5	0.000236916
0.387097	0.5	0.000184713
0.419355	0.5	0.000132129
0.451613	0.5	7.93463e-05
0.483871	0.5	2.64746e-05
0.516129	0.5	-2.64222e-05
0.548387	0.5	-7.92952e-05
0.580645	0.5	-0.00013208
0.612903	0.5	-0.000184668
0.645161	0.5	-0.000236876
0.677419	0.5	-0.000288421
0.709677	0.5	-0.000338893
0.741935	0.5	-0.00038774
0.774194	0.5	-0.00043426
0.806452	0.5	-0.000477604
0.83871	0.5	-0.000516809
0.870968	0.5	-0.000550839
0.903226	0.5	-0.000578657
0.935484	0.5	-0.000599316
0.967742	0.5	-0.000612047
1 	 0.5 	 0
